{
  "totalCount": 114,
  "pageSize": 3,
  "currentPage": 1,
  "totalPages": 38,
  "items": [
    {
      "beanId": 6,
      "groupName": [
        "Superfruit Flavors"
      ],
      "ingredients": [
        "Cane Sugar",
        "Tapioca Syrup",
        "Modified Food Starch",
        "Sour Cherry Juice From Concentrate",
        "Blueberry Juice From Blueberry Puree",
        "Pomegranate Juice From Concentrate",
        "Acai Puree",
        "Natural Flavors",
        "Acerola (Barbados) Cherry Juice",
        "Cranberry Puree",
        "Citric Acid",
        "Apple (Color)",
        "Confectioner'S Glaze",
        "Beeswax",
        "Grape Concentrate (Color)",
        "Carrot (Color)",
        "Carnauba Wax",
        "Black Currant (Color)",
        "Hibiscus (Color)",
        "Color Added."
      ],
      "flavorName": "Barbados Cherry",
      "description": "A Sweet Cherry Flavor With Just A Hint Of Tartness.",
      "colorGroup": "lightpink",
      "backgroundColor": "#E798AB",
      "imageUrl": "https://cdn-tp1.mozu.com/9046-m1/cms/files/168244d0-b3ba-4725-a2d9-5083b362d10a",
      "glutenFree": false,
      "sugarFree": false,
      "seasonal": false,
      "kosher": true
    },
    {
      "beanId": 7,
      "groupName": [
        "Jelly Belly Official Flavors"
      ],
      "ingredients": [
        "Sugar",
        "Corn Syrup",
        "Modified Food Starch",
        "Blueberry Juice From Puree",
        "Contains 2% Or Less Of The Following:",
        "Citric Acid",
        "Natural & Artificial Flavor",
        "Color Added",
        "Blue 1 Lake",
        "Beeswax",
        "Carnauba Wax",
        "Confectioner'S Glaze."
      ],
      "flavorName": "Blueberry",
      "description": "Enjoy The Taste Of Fresh-Picked Blueberries. Deliciously Flavored With Real Blueberry Puree.",
      "colorGroup": "steelblue",
      "backgroundColor": "#3A7195",
      "imageUrl": "https://cdn-tp1.mozu.com/9046-m1/cms/files/a8f085b5-b4ff-4aca-8650-43ad54c80fe4",
      "glutenFree": false,
      "sugarFree": false,
      "seasonal": false,
      "kosher": true
    },
    {
      "beanId": 8,
      "groupName": [
        "Jelly Belly Official Flavors",
        "Kids Mix Flavors"
      ],
      "ingredients": [
        "Sugar",
        "Corn Syrup",
        "Modified Food Starch",
        "Contains 2% Or Less Of The Following:",
        "Artificial Flavor",
        "Color Added",
        "Red 40 Lake",
        "Red 40",
        "Yellow 5 Lake",
        "Beeswax",
        "Carnauba Wax",
        "Confectioner'S Glaze."
      ],
      "flavorName": "Bubble Gum",
      "description": "This Bean Has Everything But The Bubble! Taking A Trip Down Memory Lane Has Never Tasted So Good.",
      "colorGroup": "lightpink",
      "backgroundColor": "#E3ACBD",
      "imageUrl": "https://cdn-tp1.mozu.com/9046-m1/cms/files/51474130-73e9-40b7-a8ba-c9eac7be7de4",
      "glutenFree": false,
      "sugarFree": false,
      "seasonal": false,
      "kosher": true
    }
  ]
}